customer_id,order_date
1001,2014-01-02 16:06:22
1001,2014-02-12 02:48:37
1004,2014-01-25 04:46:47
1004,2014-01-26 07:55:52
1005,2014-01-22 17:54:35
1006,2014-02-10 22:15:08
1009,2014-02-12 02:21:27
1009,2014-02-12 14:20:02
1009,2014-02-13 04:50:41
1010,2014-02-15 03:04:39
