customer_id,signup_date
1,2015-01-02 11:33:06
2,2015-01-03 10:21:31
3,2015-01-03 18:04:09
4,2015-01-04 17:02:42
5,2015-01-05 01:17:49
6,2015-01-05 04:17:28
7,2015-01-05 08:39:34
8,2015-01-05 20:36:36
9,2015-01-06 12:45:29
10,2015-01-07 08:07:10
11,2015-01-07 08:28:16
12,2015-01-07 16:50:45
13,2015-01-08 13:11:56
14,2015-01-09 01:54:00
15,2015-01-10 08:23:10
16,2015-01-10 09:27:01
17,2015-01-10 13:56:18
18,2015-01-11 12:40:48
19,2015-01-12 16:20:54
20,2015-01-13 23:09:28
21,2015-01-14 05:09:58
22,2015-01-14 07:38:49
23,2015-01-15 01:19:26
24,2015-01-15 05:35:58
25,2015-01-15 13:22:58
26,2015-01-16 00:13:18
27,2015-01-16 08:28:21
28,2015-01-16 09:53:07
29,2015-01-16 22:44:34
30,2015-01-19 18:01:39
31,2015-01-19 18:43:10
32,2015-01-19 22:02:27
33,2015-01-19 22:46:45
34,2015-01-21 18:23:44
35,2015-01-22 05:27:20
36,2015-01-24 06:24:11
37,2015-01-25 06:28:39
38,2015-01-25 07:50:12
39,2015-01-25 12:50:15
40,2015-01-26 01:25:38
41,2015-01-26 22:48:16
42,2015-01-27 03:39:37
43,2015-01-27 16:35:28
44,2015-01-28 07:03:53
45,2015-01-28 20:13:51
46,2015-01-28 22:54:48
47,2015-01-29 02:47:09
48,2015-01-29 08:48:46
49,2015-01-29 15:34:30
50,2015-01-30 03:07:57
51,2015-01-30 05:15:06
52,2015-01-31 01:39:39
53,2015-01-31 08:53:13
54,2015-01-31 17:26:53
55,2015-02-01 01:36:38
56,2015-02-01 07:53:20
57,2015-02-01 13:25:44
58,2015-02-02 01:18:16
59,2015-02-02 07:39:11
60,2015-02-03 00:03:57
61,2015-02-03 01:26:30
62,2015-02-03 16:25:13
63,2015-02-05 04:05:47
64,2015-02-05 08:04:45
65,2015-02-05 14:43:58
66,2015-02-06 03:28:13
67,2015-02-06 09:43:31
68,2015-02-08 04:06:05
69,2015-02-08 17:52:04
70,2015-02-12 22:34:52
71,2015-02-13 02:53:53
72,2015-02-13 09:29:53
73,2015-02-13 12:49:55
74,2015-02-14 01:44:44
75,2015-02-14 08:28:52
76,2015-02-14 09:14:16
77,2015-02-14 10:04:20
78,2015-02-14 18:25:09
79,2015-02-14 22:20:04
80,2015-02-16 06:33:26
81,2015-02-16 13:09:10
82,2015-02-16 18:20:28
83,2015-02-17 12:22:47
84,2015-02-17 22:11:49
85,2015-02-18 01:24:06
86,2015-02-18 03:43:19
87,2015-02-18 04:27:20
88,2015-02-18 09:07:47
89,2015-02-18 15:10:47
90,2015-02-19 14:47:06
91,2015-02-20 08:23:49
92,2015-02-20 14:31:57
93,2015-02-20 18:33:08
94,2015-02-22 11:36:00
95,2015-02-22 21:58:36
96,2015-02-23 11:05:22
97,2015-02-25 00:04:15
98,2015-02-25 06:53:55
99,2015-02-25 13:56:23
100,2015-02-26 20:09:26
